[
   {
      "region":"west",
      "frame":false,
      "margin":"15px 8px 8px 0px",
      "bodyPadding":"0px 8px 8px 8px",
      "flex":1,
      "_regionId_":"layout-2-zone-1",
      "xtype":"dashboard",
      "overflowY":"auto",
      "style":"background: #fcfcfc",
      "bodyStyle":"background: #fcfcfc",
      "layout":{
         "type":"vbox",
         "align":"stretch"
      },
      "parts":{
         "portlet":{
            "viewTemplate":{
               "tools":"{tools}",
               "collapsible":false, 
               "closable":false,
               "items":{
                  "xtype":"container",
                  "html":"{html}",              
	              "listeners" : "{listeners}",
                  "cls":"{cls}",
                  "layout":"anchor",
				  "items": "{items}",
					"overflowY" : "auto"
               }
            }
         }
      }
   },
   {
      "region":"center",
      "frame":false,
      "margin":"15px 0px 8px 0px",
      "bodyPadding":"0px 8px 8px 8px",
      "flex":1,
      "_regionId_":"layout-2-zone-2",
      "xtype":"dashboard",
      "overflowY":"auto",
      "style":"background: #fcfcfc",
      "bodyStyle":"background: #fcfcfc",
      "layout":{
         "type":"vbox",
         "align":"stretch"
      },
      "parts":{
         "portlet":{
            "viewTemplate":{
               "flex":1,
               "tools":"{tools}",
               "collapsible":false,
               "closable":false,
               "items":{
                  "xtype":"container",
                  "html":"{html}",             
	              "listeners" : "{listeners}",
                  "cls":"{cls}",
                  "layout":"anchor",
				  "items": "{items}",
					"overflowY" : "auto"
               }
            }
         }
      }
   },
   {
      "region":"east",
      "frame":false,
      "margin":"15px 0px 8px 8px",
      "bodyPadding":"0px 8px 8px 8px",
      "flex":1,
      "_regionId_":"layout-2-zone-3",
      "xtype":"dashboard",
      "overflowY":"auto",
      "style":"background: #fcfcfc",
      "bodyStyle":"background: #fcfcfc",
      "layout":{
         "type":"vbox",
         "align":"stretch"
      },
      "parts":{
         "portlet":{
            "viewTemplate":{
               "flex":1,
               "tools":"{tools}",
               "collapsible":false,
               "closable":false,
               "items":{
                  "xtype":"container",
                  "html":"{html}",      
	              "listeners" : "{listeners}",
                  "cls":"{cls}",
                  "layout":"anchor",
				  "items": "{items}",
					"overflowY" : "auto"
               }
            }
         }
      }
   }
]