targetAlias,targetType,sourceRefName,notes
Invoice,N/A,document,
Fuel Tickets,N/A,document,
FuelTicket,N/A,document,
Suppliers,N/A,document,
FuelQuotation,N/A,document,
Order,N/A,document,
Component,N/A,document,
FuelRequest,N/A,document,
Company,N/A,document,
OutgoingInvoice,N/A,document,
Avatar,N/A,document,
Contract,N/A,document,
ContractCustomer,N/A,document,
Invoice,N/A,image,
Fuel Tickets,N/A,image,
FuelTicket,N/A,image,
Suppliers,N/A,image,
FuelQuotation,N/A,image,
Order,N/A,image,
Component,N/A,image,
FuelRequest,N/A,image,
Company,N/A,image,
OutgoingInvoice,N/A,image,
Avatar,N/A,image,
Contract,N/A,image,
ContractCustomer,N/A,image,