id,name,active
1,Africa/Addis_Ababa,1
2,Africa/Bissau,1
3,Africa/Ceuta,1
4,Africa/Harare,1
5,Africa/Kinshasa,1
6,Africa/Maputo,1
7,Africa/Windhoek,1
8,America/Argentina/Buenos_Aires,1
9,America/Cayenne,1
10,America/Cordoba,1
11,America/Danmarkshavn,1
12,America/Guadeloupe,1
13,America/Hermosillo,1
14,America/Indiana/Indianapolis,1
15,America/Indiana/Knox,1
16,America/Knox_IN,1
17,America/La_Paz,1
18,America/Manaus,1
19,America/Mendoza,1
20,America/Nipigon,1
21,America/Panama,1
22,America/Swift_Current,1
23,Asia/Beirut,1
24,Asia/Macau,1
25,Asia/Saigon,1
26,Asia/Tokyo,1
27,Atlantic/Faeroe,1
28,Atlantic/St_Helena,1
29,Australia/Melbourne,1
30,Australia/West,1
31,Chile/EasterIsland,1
32,Eire,1
33,Europe/Andorra,1
34,Europe/Bratislava,1
35,Europe/Dublin,1
36,Europe/Jersey,1
37,Europe/Nicosia,1
38,Europe/Tirane,1
39,Europe/Zaporozhye,1
40,GMT+0,1
41,Indian/Chagos,1
42,Indian/Mauritius,1
43,Mexico/General,1
44,MST7MDT,1
45,NZ,1
46,NZ-CHAT,1
47,Pacific/Easter,1
48,Pacific/Palau,1
49,Poland,1
50,ROC,1
51,US/Alaska,1
52,Africa/Abidjan,1
53,Africa/Asmara,1
54,Africa/Brazzaville,1
55,Africa/Douala,1
56,Africa/Lome,1
57,Africa/Mogadishu,1
58,Africa/Monrovia,1
59,Africa/Niamey,1
60,Africa/Nouakchott,1
61,Africa/Ouagadougou,1
62,Africa/Timbuktu,1
63,Africa/Tripoli,1
64,America/Araguaina,1
65,America/Belize,1
66,America/Coral_Harbour,1
67,America/Cuiaba,1
68,America/Grenada,1
69,America/Indiana/Tell_City,1
70,America/Juneau,1
71,America/Kentucky/Louisville,1
72,America/Louisville,1
73,America/Montevideo,1
74,America/North_Dakota/New_Salem,1
75,America/Paramaribo,1
76,America/Rainy_River,1
77,America/Resolute,1
78,America/Sao_Paulo,1
79,America/Tortola,1
80,America/Vancouver,1
81,Asia/Bahrain,1
82,Asia/Brunei,1
83,Asia/Dili,1
84,Asia/Hovd,1
85,Asia/Karachi,1
86,Asia/Kolkata,1
87,Asia/Riyadh,1
88,Asia/Tehran,1
89,Asia/Ulaanbaatar,1
90,Atlantic/Stanley,1
91,Australia/Broken_Hill,1
92,Chile/Continental,1
93,Europe/Athens,1
94,Europe/Bucharest,1
95,Europe/Guernsey,1
96,Europe/Sofia,1
97,Europe/Vienna,1
98,Europe/Zagreb,1
99,GMT-0,1
100,Indian/Comoro,1
101,Jamaica,1
102,MST,1
103,Pacific/Chatham,1
104,Pacific/Noumea,1
105,US/Aleutian,1
106,US/Arizona,1
107,US/Pacific-New,1
108,Africa/Dar_es_Salaam,1
109,Africa/Kigali,1
110,Africa/Porto-Novo,1
111,America/Argentina/Catamarca,1
112,America/Argentina/ComodRivadavia,1
113,America/Bahia,1
114,America/Belem,1
115,America/Boise,1
116,America/Denver,1
117,America/Eirunepe,1
118,America/Indiana/Vevay,1
119,America/Indiana/Vincennes,1
120,America/Kentucky/Monticello,1
121,America/Maceio,1
122,America/Matamoros,1
123,America/Mexico_City,1
124,America/Moncton,1
125,America/Monterrey,1
126,America/Porto_Acre,1
127,America/Yellowknife,1
128,Antarctica/Palmer,1
129,Asia/Aqtobe,1
130,Asia/Dubai,1
131,Asia/Kashgar,1
132,Asia/Macao,1
133,Asia/Manila,1
134,Asia/Nicosia,1
135,Asia/Oral,1
136,Asia/Qyzylorda,1
137,Asia/Sakhalin,1
138,Atlantic/Bermuda,1
139,Australia/Canberra,1
140,Australia/NSW,1
141,Australia/South,1
142,Australia/Tasmania,1
143,Brazil/DeNoronha,1
144,Brazil/East,1
145,Canada/Yukon,1
146,EST5EDT,1
147,Europe/Brussels,1
148,Europe/Malta,1
149,Europe/Podgorica,1
150,Europe/Prague,1
151,Europe/Samara,1
152,Europe/San_Marino,1
153,Europe/Tiraspol,1
154,Iceland,1
155,Indian/Christmas,1
156,Mexico/BajaSur,1
157,Pacific/Enderbury,1
158,Pacific/Fakaofo,1
159,Pacific/Majuro,1
160,Pacific/Ponape,1
161,Pacific/Tahiti,1
162,Pacific/Tongatapu,1
163,Pacific/Wake,1
164,PRC,1
165,Africa/Accra,1
166,Africa/Bamako,1
167,Africa/Conakry,1
168,Africa/Johannesburg,1
169,Africa/Libreville,1
170,Africa/Lusaka,1
171,Africa/Sao_Tome,1
172,America/Argentina/Cordoba,1
173,America/Argentina/Salta,1
174,America/Argentina/San_Luis,1
175,America/Atka,1
176,America/Barbados,1
177,America/Bogota,1
178,America/Buenos_Aires,1
179,America/Costa_Rica,1
180,America/Guatemala,1
181,America/Indiana/Winamac,1
182,America/Marigot,1
183,America/Montserrat,1
184,America/Phoenix,1
185,America/Porto_Velho,1
186,America/Rosario,1
187,America/Santa_Isabel,1
188,America/Santiago,1
189,America/Scoresbysund,1
190,America/St_Vincent,1
191,America/Thule,1
192,America/Toronto,1
193,Antarctica/DumontDUrville,1
194,Asia/Aden,1
195,Asia/Amman,1
196,Asia/Ashkhabad,1
197,Asia/Bishkek,1
198,Asia/Choibalsan,1
199,Asia/Chungking,1
200,Asia/Colombo,1
201,Asia/Dhaka,1
202,Asia/Dushanbe,1
203,Asia/Gaza,1
204,Asia/Irkutsk,1
205,Asia/Jerusalem,1
206,Asia/Novosibirsk,1
207,Asia/Omsk,1
208,Asia/Rangoon,1
209,Asia/Tel_Aviv,1
210,Asia/Thimbu,1
211,Asia/Vientiane,1
212,Asia/Vladivostok,1
213,Atlantic/Canary,1
214,Australia/Currie,1
215,Australia/Hobart,1
216,Australia/Lord_Howe,1
217,Australia/Perth,1
218,Australia/Sydney,1
219,Canada/Central,1
220,Europe/Belgrade,1
221,Europe/Berlin,1
222,Europe/Budapest,1
223,Europe/Gibraltar,1
224,Europe/Isle_of_Man,1
225,Europe/Kaliningrad,1
226,Europe/Ljubljana,1
227,Europe/Luxembourg,1
228,Europe/Paris,1
229,Europe/Tallinn,1
230,Europe/Uzhgorod,1
231,Europe/Volgograd,1
232,GMT,1
233,HST,1
234,Indian/Cocos,1
235,MET,1
236,Mexico/BajaNorte,1
237,Pacific/Apia,1
238,Pacific/Efate,1
239,Pacific/Fiji,1
240,Pacific/Guadalcanal,1
241,Pacific/Johnston,1
242,Pacific/Pitcairn,1
243,Pacific/Port_Moresby,1
244,Pacific/Samoa,1
245,Pacific/Truk,1
246,Pacific/Yap,1
247,US/Eastern,1
248,US/Michigan,1
249,Africa/Bangui,1
250,Africa/Blantyre,1
251,Africa/Cairo,1
252,Africa/Khartoum,1
253,Africa/Lagos,1
254,Africa/Malabo,1
255,Africa/Maseru,1
256,Africa/Nairobi,1
257,Africa/Tunis,1
258,America/Argentina/Tucuman,1
259,America/Bahia_Banderas,1
260,America/Blanc-Sablon,1
261,America/Cancun,1
262,America/Dominica,1
263,America/Havana,1
264,America/Indiana/Marengo,1
265,America/Los_Angeles,1
266,America/Managua,1
267,America/Martinique,1
268,America/Mazatlan,1
269,America/Menominee,1
270,America/Miquelon,1
271,America/Nome,1
272,America/Rankin_Inlet,1
273,America/Santo_Domingo,1
274,America/Shiprock,1
275,America/St_Thomas,1
276,America/Virgin,1
277,America/Whitehorse,1
278,America/Winnipeg,1
279,America/Yakutat,1
280,Antarctica/South_Pole,1
281,Arctic/Longyearbyen,1
282,Asia/Baghdad,1
283,Asia/Baku,1
284,Asia/Bangkok,1
285,Asia/Calcutta,1
286,Asia/Damascus,1
287,Asia/Harbin,1
288,Asia/Jakarta,1
289,Asia/Kabul,1
290,Asia/Singapore,1
291,Asia/Urumqi,1
292,Atlantic/Azores,1
293,Australia/Adelaide,1
294,Australia/LHI,1
295,Brazil/West,1
296,Canada/Pacific,1
297,CST6CDT,1
298,Cuba,1
299,Egypt,1
300,Europe/Amsterdam,1
301,Europe/Helsinki,1
302,Europe/Istanbul,1
303,Europe/Kiev,1
304,Europe/Lisbon,1
305,Europe/Mariehamn,1
306,Europe/Minsk,1
307,GB-Eire,1
308,Greenwich,1
309,Indian/Antananarivo,1
310,Indian/Mayotte,1
311,Kwajalein,1
312,Pacific/Auckland,1
313,Pacific/Galapagos,1
314,Pacific/Honolulu,1
315,Pacific/Nauru,1
316,Pacific/Wallis,1
317,US/Central,1
318,US/Mountain,1
319,UTC,1
320,Africa/Gaborone,1
321,America/Asuncion,1
322,America/Campo_Grande,1
323,America/Chicago,1
324,America/Detroit,1
325,America/Edmonton,1
326,America/Ensenada,1
327,America/Goose_Bay,1
328,America/Halifax,1
329,America/Indiana/Petersburg,1
330,America/Indianapolis,1
331,America/Iqaluit,1
332,America/Jamaica,1
333,America/Merida,1
334,America/Montreal,1
335,America/New_York,1
336,America/Ojinaga,1
337,America/Port-au-Prince,1
338,America/St_Johns,1
339,America/St_Lucia,1
340,America/Thunder_Bay,1
341,Antarctica/Casey,1
342,Antarctica/Davis,1
343,Antarctica/Macquarie,1
344,Antarctica/McMurdo,1
345,Antarctica/Syowa,1
346,Asia/Almaty,1
347,Asia/Chongqing,1
348,Asia/Hong_Kong,1
349,Asia/Kathmandu,1
350,Asia/Kuching,1
351,Asia/Kuwait,1
352,Asia/Magadan,1
353,Asia/Shanghai,1
354,Asia/Thimphu,1
355,Asia/Yakutsk,1
356,Asia/Yerevan,1
357,Atlantic/Faroe,1
358,Atlantic/Jan_Mayen,1
359,Atlantic/Madeira,1
360,Atlantic/South_Georgia,1
361,Australia/Darwin,1
362,Australia/Eucla,1
363,Canada/East-Saskatchewan,1
364,CET,1
365,CST,1
366,Europe/Belfast,1
367,Europe/Chisinau,1
368,Europe/Copenhagen,1
369,Europe/London,1
370,Europe/Rome,1
371,Europe/Skopje,1
372,Europe/Warsaw,1
373,GB,1
374,Indian/Maldives,1
375,Israel,1
376,Pacific/Gambier,1
377,Pacific/Kosrae,1
378,Pacific/Norfolk,1
379,Pacific/Rarotonga,1
380,Pacific/Saipan,1
381,PST8PDT,1
382,US/Hawaii,1
383,W-SU,1
384,Africa/Algiers,1
385,Africa/Asmera,1
386,Africa/Banjul,1
387,Africa/Bujumbura,1
388,Africa/Casablanca,1
389,Africa/Djibouti,1
390,Africa/El_Aaiun,1
391,Africa/Luanda,1
392,America/Anchorage,1
393,America/Argentina/La_Rioja,1
394,America/Argentina/Mendoza,1
395,America/Argentina/San_Juan,1
396,America/Aruba,1
397,America/Boa_Vista,1
398,America/Catamarca,1
399,America/Cayman,1
400,America/Chihuahua,1
401,America/Curacao,1
402,America/Dawson_Creek,1
403,America/El_Salvador,1
404,America/Fortaleza,1
405,America/Grand_Turk,1
406,America/Guayaquil,1
407,America/Guyana,1
408,America/North_Dakota/Center,1
409,America/Port_of_Spain,1
410,America/Recife,1
411,America/Regina,1
412,America/Rio_Branco,1
413,America/Tegucigalpa,1
414,Antarctica/Mawson,1
415,Asia/Anadyr,1
416,Asia/Dacca,1
417,Asia/Ho_Chi_Minh,1
418,Asia/Istanbul,1
419,Asia/Jayapura,1
420,Asia/Katmandu,1
421,Asia/Muscat,1
422,Asia/Phnom_Penh,1
423,Asia/Pontianak,1
424,Asia/Pyongyang,1
425,Asia/Seoul,1
426,Asia/Tashkent,1
427,Asia/Ujung_Pandang,1
428,Atlantic/Cape_Verde,1
429,Australia/ACT,1
430,Australia/North,1
431,Australia/Victoria,1
432,Canada/Atlantic,1
433,Canada/Mountain,1
434,Canada/Newfoundland,1
435,Canada/Saskatchewan,1
436,EET,1
437,Europe/Madrid,1
438,Europe/Monaco,1
439,Europe/Moscow,1
440,Europe/Oslo,1
441,Europe/Vaduz,1
442,Europe/Zurich,1
443,GMT0,1
444,Indian/Reunion,1
445,Libya,1
446,Navajo,1
447,Pacific/Funafuti,1
448,Pacific/Marquesas,1
449,Pacific/Pago_Pago,1
450,Pacific/Tarawa,1
451,ROK,1
452,Singapore,1
453,US/Indiana-Starke,1
454,US/Pacific,1
455,WET,1
456,Africa/Dakar,1
457,Africa/Freetown,1
458,Africa/Kampala,1
459,Africa/Lubumbashi,1
460,Africa/Mbabane,1
461,Africa/Ndjamena,1
462,America/Adak,1
463,America/Anguilla,1
464,America/Antigua,1
465,America/Argentina/Jujuy,1
466,America/Argentina/Rio_Gallegos,1
467,America/Argentina/Ushuaia,1
468,America/Atikokan,1
469,America/Cambridge_Bay,1
470,America/Caracas,1
471,America/Dawson,1
472,America/Fort_Wayne,1
473,America/Glace_Bay,1
474,America/Godthab,1
475,America/Inuvik,1
476,America/Jujuy,1
477,America/Lima,1
478,America/Nassau,1
479,America/Noronha,1
480,America/Pangnirtung,1
481,America/Puerto_Rico,1
482,America/St_Barthelemy,1
483,America/St_Kitts,1
484,America/Tijuana,1
485,Asia/Aqtau,1
486,Asia/Ashgabat,1
487,Asia/Kamchatka,1
488,Asia/Krasnoyarsk,1
489,Asia/Kuala_Lumpur,1
490,Asia/Makassar,1
491,Asia/Qatar,1
492,Asia/Samarkand,1
493,Asia/Taipei,1
494,Asia/Tbilisi,1
495,Asia/Ulan_Bator,1
496,Asia/Yekaterinburg,1
497,Atlantic/Reykjavik,1
498,Australia/Brisbane,1
499,Australia/Lindeman,1
500,Australia/Queensland,1
501,Australia/Yancowinna,1
502,Brazil/Acre,1
503,Canada/Eastern,1
504,EST,1
505,Europe/Riga,1
506,Europe/Sarajevo,1
507,Europe/Simferopol,1
508,Europe/Stockholm,1
509,Europe/Vatican,1
510,Europe/Vilnius,1
511,Hongkong,1
512,Indian/Kerguelen,1
513,Indian/Mahe,1
514,Iran,1
515,Japan,1
516,Pacific/Guam,1
517,Pacific/Kiritimati,1
518,Pacific/Kwajalein,1
519,Pacific/Midway,1
520,Pacific/Niue,1
521,Portugal,1
522,PST,1
523,Turkey,1
524,US/East-Indiana,1
525,US/Samoa,1