CODE,isStdFlg,NAME,description,active
ARGUS,0,ARGUS,Argus,1
OPIS,0,Oil Price Information Service,Opis,1
GLS,0,Global Insight, Daily Press,1
PLATTS,0,PLATTS,Platts,1
BLOOMBERG,0,Bloomberg,Bloomberg Open Market,1
FT,0,Financial Times,Financial Times,0
NYMEX,0,New York Mercantile Exchange,New York Mercantile Exchange,0
BOTOK,0,Bank of Tokyo,Bank of Tokyo,0
BOKO,0,Bank of Korea,Bank of Korea,0
MSCI,0,Morgan Stanley Capital International,Morgan Stanley Capital International,0
BOTRK,0,Central Bank of the Republic of Turkey,Central Bank of the Republic of Turkey,0
INT,1,Internal Department,Internal Department,1
GER CB,0,Deutsche Bundesbank,Deutsche Bundesbank,0
FEOP,0,Far East Oil Price,Far East Oil Price,0
BORUS,0,Central Bank of the Russian Federation,Central Bank of the Russian Federation,0
DLH,0,Deutsch Lufthansa,Deutsch Lufthansa,0
IPE,0,International Petroleum Exchange,International Petroleum Exchange,0
INDIAREFBANK,0,Reserve Bank of India,Reserve Bank of India,0
BOCD,0,Royal Bank of Canada,Royal Bank of Canada,0
BOSA,0,Bank of South Africa,Bank of South Africa,0
BOCN,0,Bank of China,Bank of China,0
NATREF,0,National Petroleum Refiners of SA (Pty) Ltd,National Petroleum Refiners of SA (Pty) Ltd,0
SAP/IATA,0,SAP/IATA (internal),SAP/IATA (internal),0
BONG,0,Central Bank of Nigeria,Central Bank of Nigeria,0
BOSAR,0,South African Reserve Bank,South African Reserve Bank,0
CSH,0,CS Holding,CS Holding,0
BODN,0,Danish National Bank,Danish National Bank,0
ECB,0,European Central Bank,European Central Bank,0
BOJPN,0,Bank of Japan,Bank of Japan,0
EGPC,0,EGPC,EGPC,0
