code,name,isProd,isSys,job,active,createdAt,modifiedAt,createdBy,modifiedBy,id,refid
Diff,Differential,true,true,INT,true,,,,,2,
Facility charge,Facility charge,false,true,INT,true,,,,,5,
Into-plane service,Into-plane service,false,true,INT,true,,,,,3,
Other fees,Other fees,false,true,INT,true,,,,,6,
Product,Product,true,true,INT,true,,,,,1,
Tax,Tax,false,true,INT,true,,,,,7,
Transportation,Transportation,false,true,INT,true,,,,,4,